hoppe  hoppa     adj   <perf-part>  fl          
hoppe  hoppa     adj   <perf-part>  bu    eint  
hoppe  hoppa     adj   <perf-part>  m/f   ub    eint
hoppe  hoppa     adj   <perf-part>  nøyt  ub    eint
hoppe  hoppande  adj   <pres-part>              
hoppe  hopp      verb  imp                      
hoppe  hoppa     verb  imp                      
hoppe  hoppe     verb  imp                      
hoppe  hoppa     verb  inf                      
hoppe  hoppe     verb  inf                      
hoppe  hoppast   verb  inf          pass        
hoppe  hoppa     verb  perf-part                
hoppe  hoppar    verb  pres                     
hoppe  hoppa     verb  pret                     
