hoppe  hoppene  subst  mask  appell  fl  be
hoppe  hopper   subst  mask  appell  fl  ub
---                                      
hoppe  hoppene  subst  fem   appell  fl  be
hoppe  hopper   subst  fem   appell  fl  ub
